{
   "AC":{
      "name":"Ascension Island",
      "emoji":"🇦🇨",
      "image":"https://cdn.jsdelivr.net/npm/country-flag-emoji-json@2.0.0/dist/images/AC.svg",
      "unicode":"U+1F1E6 U+1F1E8"
   },
   "AD":{
      "name":"Andorra",
      "emoji":"🇦🇩",
      "image":"https://cdn.jsdelivr.net/npm/country-flag-emoji-json@2.0.0/dist/images/AD.svg",
      "unicode":"U+1F1E6 U+1F1E9"
   },
   "AE":{
      "name":"United Arab Emirates",
      "emoji":"🇦🇪",
      "image":"https://cdn.jsdelivr.net/npm/country-flag-emoji-json@2.0.0/dist/images/AE.svg",
      "unicode":"U+1F1E6 U+1F1EA"
   },
   "AF":{
      "name":"Afghanistan",
      "emoji":"🇦🇫",
      "image":"https://cdn.jsdelivr.net/npm/country-flag-emoji-json@2.0.0/dist/images/AF.svg",
      "unicode":"U+1F1E6 U+1F1EB"
   },
   "AG":{
      "name":"Antigua \u0026 Barbuda",
      "emoji":"🇦🇬",
      "image":"https://cdn.jsdelivr.net/npm/country-flag-emoji-json@2.0.0/dist/images/AG.svg",
      "unicode":"U+1F1E6 U+1F1EC"
   },
   "AI":{
      "name":"Anguilla",
      "emoji":"🇦🇮",
      "image":"https://cdn.jsdelivr.net/npm/country-flag-emoji-json@2.0.0/dist/images/AI.svg",
      "unicode":"U+1F1E6 U+1F1EE"
   },
   "AL":{
      "name":"Albania",
      "emoji":"🇦🇱",
      "image":"https://cdn.jsdelivr.net/npm/country-flag-emoji-json@2.0.0/dist/images/AL.svg",
      "unicode":"U+1F1E6 U+1F1F1"
   },
   "AM":{
      "name":"Armenia",
      "emoji":"🇦🇲",
      "image":"https://cdn.jsdelivr.net/npm/country-flag-emoji-json@2.0.0/dist/images/AM.svg",
      "unicode":"U+1F1E6 U+1F1F2"
   },
   "AO":{
      "name":"Angola",
      "emoji":"🇦🇴",
      "image":"https://cdn.jsdelivr.net/npm/country-flag-emoji-json@2.0.0/dist/images/AO.svg",
      "unicode":"U+1F1E6 U+1F1F4"
   },
   "AQ":{
      "name":"Antarctica",
      "emoji":"🇦🇶",
      "image":"https://cdn.jsdelivr.net/npm/country-flag-emoji-json@2.0.0/dist/images/AQ.svg",
      "unicode":"U+1F1E6 U+1F1F6"
   },
   "AR":{
      "name":"Argentina",
      "emoji":"🇦🇷",
      "image":"https://cdn.jsdelivr.net/npm/country-flag-emoji-json@2.0.0/dist/images/AR.svg",
      "unicode":"U+1F1E6 U+1F1F7"
   },
   "AS":{
      "name":"American Samoa",
      "emoji":"🇦🇸",
      "image":"https://cdn.jsdelivr.net/npm/country-flag-emoji-json@2.0.0/dist/images/AS.svg",
      "unicode":"U+1F1E6 U+1F1F8"
   },
   "AT":{
      "name":"Austria",
      "emoji":"🇦🇹",
      "image":"https://cdn.jsdelivr.net/npm/country-flag-emoji-json@2.0.0/dist/images/AT.svg",
      "unicode":"U+1F1E6 U+1F1F9"
   },
   "AU":{
      "name":"Australia",
      "emoji":"🇦🇺",
      "image":"https://cdn.jsdelivr.net/npm/country-flag-emoji-json@2.0.0/dist/images/AU.svg",
      "unicode":"U+1F1E6 U+1F1FA"
   },
   "AW":{
      "name":"Aruba",
      "emoji":"🇦🇼",
      "image":"https://cdn.jsdelivr.net/npm/country-flag-emoji-json@2.0.0/dist/images/AW.svg",
      "unicode":"U+1F1E6 U+1F1FC"
   },
   "AX":{
      "name":"Åland Islands",
      "emoji":"🇦🇽",
      "image":"https://cdn.jsdelivr.net/npm/country-flag-emoji-json@2.0.0/dist/images/AX.svg",
      "unicode":"U+1F1E6 U+1F1FD"
   },
   "AZ":{
      "name":"Azerbaijan",
      "emoji":"🇦🇿",
      "image":"https://cdn.jsdelivr.net/npm/country-flag-emoji-json@2.0.0/dist/images/AZ.svg",
      "unicode":"U+1F1E6 U+1F1FF"
   },
   "BA":{
      "name":"Bosnia \u0026 Herzegovina",
      "emoji":"🇧🇦",
      "image":"https://cdn.jsdelivr.net/npm/country-flag-emoji-json@2.0.0/dist/images/BA.svg",
      "unicode":"U+1F1E7 U+1F1E6"
   },
   "BB":{
      "name":"Barbados",
      "emoji":"🇧🇧",
      "image":"https://cdn.jsdelivr.net/npm/country-flag-emoji-json@2.0.0/dist/images/BB.svg",
      "unicode":"U+1F1E7 U+1F1E7"
   },
   "BD":{
      "name":"Bangladesh",
      "emoji":"🇧🇩",
      "image":"https://cdn.jsdelivr.net/npm/country-flag-emoji-json@2.0.0/dist/images/BD.svg",
      "unicode":"U+1F1E7 U+1F1E9"
   },
   "BE":{
      "name":"Belgium",
      "emoji":"🇧🇪",
      "image":"https://cdn.jsdelivr.net/npm/country-flag-emoji-json@2.0.0/dist/images/BE.svg",
      "unicode":"U+1F1E7 U+1F1EA"
   },
   "BF":{
      "name":"Burkina Faso",
      "emoji":"🇧🇫",
      "image":"https://cdn.jsdelivr.net/npm/country-flag-emoji-json@2.0.0/dist/images/BF.svg",
      "unicode":"U+1F1E7 U+1F1EB"
   },
   "BG":{
      "name":"Bulgaria",
      "emoji":"🇧🇬",
      "image":"https://cdn.jsdelivr.net/npm/country-flag-emoji-json@2.0.0/dist/images/BG.svg",
      "unicode":"U+1F1E7 U+1F1EC"
   },
   "BH":{
      "name":"Bahrain",
      "emoji":"🇧🇭",
      "image":"https://cdn.jsdelivr.net/npm/country-flag-emoji-json@2.0.0/dist/images/BH.svg",
      "unicode":"U+1F1E7 U+1F1ED"
   },
   "BI":{
      "name":"Burundi",
      "emoji":"🇧🇮",
      "image":"https://cdn.jsdelivr.net/npm/country-flag-emoji-json@2.0.0/dist/images/BI.svg",
      "unicode":"U+1F1E7 U+1F1EE"
   },
   "BJ":{
      "name":"Benin",
      "emoji":"🇧🇯",
      "image":"https://cdn.jsdelivr.net/npm/country-flag-emoji-json@2.0.0/dist/images/BJ.svg",
      "unicode":"U+1F1E7 U+1F1EF"
   },
   "BL":{
      "name":"St. Barthélemy",
      "emoji":"🇧🇱",
      "image":"https://cdn.jsdelivr.net/npm/country-flag-emoji-json@2.0.0/dist/images/BL.svg",
      "unicode":"U+1F1E7 U+1F1F1"
   },
   "BM":{
      "name":"Bermuda",
      "emoji":"🇧🇲",
      "image":"https://cdn.jsdelivr.net/npm/country-flag-emoji-json@2.0.0/dist/images/BM.svg",
      "unicode":"U+1F1E7 U+1F1F2"
   },
   "BN":{
      "name":"Brunei",
      "emoji":"🇧🇳",
      "image":"https://cdn.jsdelivr.net/npm/country-flag-emoji-json@2.0.0/dist/images/BN.svg",
      "unicode":"U+1F1E7 U+1F1F3"
   },
   "BO":{
      "name":"Bolivia",
      "emoji":"🇧🇴",
      "image":"https://cdn.jsdelivr.net/npm/country-flag-emoji-json@2.0.0/dist/images/BO.svg",
      "unicode":"U+1F1E7 U+1F1F4"
   },
   "BQ":{
      "name":"Caribbean Netherlands",
      "emoji":"🇧🇶",
      "image":"https://cdn.jsdelivr.net/npm/country-flag-emoji-json@2.0.0/dist/images/BQ.svg",
      "unicode":"U+1F1E7 U+1F1F6"
   },
   "BR":{
      "name":"Brazil",
      "emoji":"🇧🇷",
      "image":"https://cdn.jsdelivr.net/npm/country-flag-emoji-json@2.0.0/dist/images/BR.svg",
      "unicode":"U+1F1E7 U+1F1F7"
   },
   "BS":{
      "name":"Bahamas",
      "emoji":"🇧🇸",
      "image":"https://cdn.jsdelivr.net/npm/country-flag-emoji-json@2.0.0/dist/images/BS.svg",
      "unicode":"U+1F1E7 U+1F1F8"
   },
   "BT":{
      "name":"Bhutan",
      "emoji":"🇧🇹",
      "image":"https://cdn.jsdelivr.net/npm/country-flag-emoji-json@2.0.0/dist/images/BT.svg",
      "unicode":"U+1F1E7 U+1F1F9"
   },
   "BV":{
      "name":"Bouvet Island",
      "emoji":"🇧🇻",
      "image":"https://cdn.jsdelivr.net/npm/country-flag-emoji-json@2.0.0/dist/images/BV.svg",
      "unicode":"U+1F1E7 U+1F1FB"
   },
   "BW":{
      "name":"Botswana",
      "emoji":"🇧🇼",
      "image":"https://cdn.jsdelivr.net/npm/country-flag-emoji-json@2.0.0/dist/images/BW.svg",
      "unicode":"U+1F1E7 U+1F1FC"
   },
   "BY":{
      "name":"Belarus",
      "emoji":"🇧🇾",
      "image":"https://cdn.jsdelivr.net/npm/country-flag-emoji-json@2.0.0/dist/images/BY.svg",
      "unicode":"U+1F1E7 U+1F1FE"
   },
   "BZ":{
      "name":"Belize",
      "emoji":"🇧🇿",
      "image":"https://cdn.jsdelivr.net/npm/country-flag-emoji-json@2.0.0/dist/images/BZ.svg",
      "unicode":"U+1F1E7 U+1F1FF"
   },
   "CA":{
      "name":"Canada",
      "emoji":"🇨🇦",
      "image":"https://cdn.jsdelivr.net/npm/country-flag-emoji-json@2.0.0/dist/images/CA.svg",
      "unicode":"U+1F1E8 U+1F1E6"
   },
   "CC":{
      "name":"Cocos (Keeling) Islands",
      "emoji":"🇨🇨",
      "image":"https://cdn.jsdelivr.net/npm/country-flag-emoji-json@2.0.0/dist/images/CC.svg",
      "unicode":"U+1F1E8 U+1F1E8"
   },
   "CD":{
      "name":"Congo - Kinshasa",
      "emoji":"🇨🇩",
      "image":"https://cdn.jsdelivr.net/npm/country-flag-emoji-json@2.0.0/dist/images/CD.svg",
      "unicode":"U+1F1E8 U+1F1E9"
   },
   "CF":{
      "name":"Central African Republic",
      "emoji":"🇨🇫",
      "image":"https://cdn.jsdelivr.net/npm/country-flag-emoji-json@2.0.0/dist/images/CF.svg",
      "unicode":"U+1F1E8 U+1F1EB"
   },
   "CG":{
      "name":"Congo - Brazzaville",
      "emoji":"🇨🇬",
      "image":"https://cdn.jsdelivr.net/npm/country-flag-emoji-json@2.0.0/dist/images/CG.svg",
      "unicode":"U+1F1E8 U+1F1EC"
   },
   "CH":{
      "name":"Switzerland",
      "emoji":"🇨🇭",
      "image":"https://cdn.jsdelivr.net/npm/country-flag-emoji-json@2.0.0/dist/images/CH.svg",
      "unicode":"U+1F1E8 U+1F1ED"
   },
   "CI":{
      "name":"Côte d’Ivoire",
      "emoji":"🇨🇮",
      "image":"https://cdn.jsdelivr.net/npm/country-flag-emoji-json@2.0.0/dist/images/CI.svg",
      "unicode":"U+1F1E8 U+1F1EE"
   },
   "CK":{
      "name":"Cook Islands",
      "emoji":"🇨🇰",
      "image":"https://cdn.jsdelivr.net/npm/country-flag-emoji-json@2.0.0/dist/images/CK.svg",
      "unicode":"U+1F1E8 U+1F1F0"
   },
   "CL":{
      "name":"Chile",
      "emoji":"🇨🇱",
      "image":"https://cdn.jsdelivr.net/npm/country-flag-emoji-json@2.0.0/dist/images/CL.svg",
      "unicode":"U+1F1E8 U+1F1F1"
   },
   "CM":{
      "name":"Cameroon",
      "emoji":"🇨🇲",
      "image":"https://cdn.jsdelivr.net/npm/country-flag-emoji-json@2.0.0/dist/images/CM.svg",
      "unicode":"U+1F1E8 U+1F1F2"
   },
   "CN":{
      "name":"China",
      "emoji":"🇨🇳",
      "image":"https://cdn.jsdelivr.net/npm/country-flag-emoji-json@2.0.0/dist/images/CN.svg",
      "unicode":"U+1F1E8 U+1F1F3"
   },
   "CO":{
      "name":"Colombia",
      "emoji":"🇨🇴",
      "image":"https://cdn.jsdelivr.net/npm/country-flag-emoji-json@2.0.0/dist/images/CO.svg",
      "unicode":"U+1F1E8 U+1F1F4"
   },
   "CP":{
      "name":"Clipperton Island",
      "emoji":"🇨🇵",
      "image":"https://cdn.jsdelivr.net/npm/country-flag-emoji-json@2.0.0/dist/images/CP.svg",
      "unicode":"U+1F1E8 U+1F1F5"
   },
   "CR":{
      "name":"Costa Rica",
      "emoji":"🇨🇷",
      "image":"https://cdn.jsdelivr.net/npm/country-flag-emoji-json@2.0.0/dist/images/CR.svg",
      "unicode":"U+1F1E8 U+1F1F7"
   },
   "CU":{
      "name":"Cuba",
      "emoji":"🇨🇺",
      "image":"https://cdn.jsdelivr.net/npm/country-flag-emoji-json@2.0.0/dist/images/CU.svg",
      "unicode":"U+1F1E8 U+1F1FA"
   },
   "CV":{
      "name":"Cape Verde",
      "emoji":"🇨🇻",
      "image":"https://cdn.jsdelivr.net/npm/country-flag-emoji-json@2.0.0/dist/images/CV.svg",
      "unicode":"U+1F1E8 U+1F1FB"
   },
   "CW":{
      "name":"Curaçao",
      "emoji":"🇨🇼",
      "image":"https://cdn.jsdelivr.net/npm/country-flag-emoji-json@2.0.0/dist/images/CW.svg",
      "unicode":"U+1F1E8 U+1F1FC"
   },
   "CX":{
      "name":"Christmas Island",
      "emoji":"🇨🇽",
      "image":"https://cdn.jsdelivr.net/npm/country-flag-emoji-json@2.0.0/dist/images/CX.svg",
      "unicode":"U+1F1E8 U+1F1FD"
   },
   "CY":{
      "name":"Cyprus",
      "emoji":"🇨🇾",
      "image":"https://cdn.jsdelivr.net/npm/country-flag-emoji-json@2.0.0/dist/images/CY.svg",
      "unicode":"U+1F1E8 U+1F1FE"
   },
   "CZ":{
      "name":"Czechia",
      "emoji":"🇨🇿",
      "image":"https://cdn.jsdelivr.net/npm/country-flag-emoji-json@2.0.0/dist/images/CZ.svg",
      "unicode":"U+1F1E8 U+1F1FF"
   },
   "DE":{
      "name":"Germany",
      "emoji":"🇩🇪",
      "image":"https://cdn.jsdelivr.net/npm/country-flag-emoji-json@2.0.0/dist/images/DE.svg",
      "unicode":"U+1F1E9 U+1F1EA"
   },
   "DG":{
      "name":"Diego Garcia",
      "emoji":"🇩🇬",
      "image":"https://cdn.jsdelivr.net/npm/country-flag-emoji-json@2.0.0/dist/images/DG.svg",
      "unicode":"U+1F1E9 U+1F1EC"
   },
   "DJ":{
      "name":"Djibouti",
      "emoji":"🇩🇯",
      "image":"https://cdn.jsdelivr.net/npm/country-flag-emoji-json@2.0.0/dist/images/DJ.svg",
      "unicode":"U+1F1E9 U+1F1EF"
   },
   "DK":{
      "name":"Denmark",
      "emoji":"🇩🇰",
      "image":"https://cdn.jsdelivr.net/npm/country-flag-emoji-json@2.0.0/dist/images/DK.svg",
      "unicode":"U+1F1E9 U+1F1F0"
   },
   "DM":{
      "name":"Dominica",
      "emoji":"🇩🇲",
      "image":"https://cdn.jsdelivr.net/npm/country-flag-emoji-json@2.0.0/dist/images/DM.svg",
      "unicode":"U+1F1E9 U+1F1F2"
   },
   "DO":{
      "name":"Dominican Republic",
      "emoji":"🇩🇴",
      "image":"https://cdn.jsdelivr.net/npm/country-flag-emoji-json@2.0.0/dist/images/DO.svg",
      "unicode":"U+1F1E9 U+1F1F4"
   },
   "DZ":{
      "name":"Algeria",
      "emoji":"🇩🇿",
      "image":"https://cdn.jsdelivr.net/npm/country-flag-emoji-json@2.0.0/dist/images/DZ.svg",
      "unicode":"U+1F1E9 U+1F1FF"
   },
   "EA":{
      "name":"Ceuta \u0026 Melilla",
      "emoji":"🇪🇦",
      "image":"https://cdn.jsdelivr.net/npm/country-flag-emoji-json@2.0.0/dist/images/EA.svg",
      "unicode":"U+1F1EA U+1F1E6"
   },
   "EC":{
      "name":"Ecuador",
      "emoji":"🇪🇨",
      "image":"https://cdn.jsdelivr.net/npm/country-flag-emoji-json@2.0.0/dist/images/EC.svg",
      "unicode":"U+1F1EA U+1F1E8"
   },
   "EE":{
      "name":"Estonia",
      "emoji":"🇪🇪",
      "image":"https://cdn.jsdelivr.net/npm/country-flag-emoji-json@2.0.0/dist/images/EE.svg",
      "unicode":"U+1F1EA U+1F1EA"
   },
   "EG":{
      "name":"Egypt",
      "emoji":"🇪🇬",
      "image":"https://cdn.jsdelivr.net/npm/country-flag-emoji-json@2.0.0/dist/images/EG.svg",
      "unicode":"U+1F1EA U+1F1EC"
   },
   "EH":{
      "name":"Western Sahara",
      "emoji":"🇪🇭",
      "image":"https://cdn.jsdelivr.net/npm/country-flag-emoji-json@2.0.0/dist/images/EH.svg",
      "unicode":"U+1F1EA U+1F1ED"
   },
   "ER":{
      "name":"Eritrea",
      "emoji":"🇪🇷",
      "image":"https://cdn.jsdelivr.net/npm/country-flag-emoji-json@2.0.0/dist/images/ER.svg",
      "unicode":"U+1F1EA U+1F1F7"
   },
   "ES":{
      "name":"Spain",
      "emoji":"🇪🇸",
      "image":"https://cdn.jsdelivr.net/npm/country-flag-emoji-json@2.0.0/dist/images/ES.svg",
      "unicode":"U+1F1EA U+1F1F8"
   },
   "ET":{
      "name":"Ethiopia",
      "emoji":"🇪🇹",
      "image":"https://cdn.jsdelivr.net/npm/country-flag-emoji-json@2.0.0/dist/images/ET.svg",
      "unicode":"U+1F1EA U+1F1F9"
   },
   "EU":{
      "name":"European Union",
      "emoji":"🇪🇺",
      "image":"https://cdn.jsdelivr.net/npm/country-flag-emoji-json@2.0.0/dist/images/EU.svg",
      "unicode":"U+1F1EA U+1F1FA"
   },
   "FI":{
      "name":"Finland",
      "emoji":"🇫🇮",
      "image":"https://cdn.jsdelivr.net/npm/country-flag-emoji-json@2.0.0/dist/images/FI.svg",
      "unicode":"U+1F1EB U+1F1EE"
   },
   "FJ":{
      "name":"Fiji",
      "emoji":"🇫🇯",
      "image":"https://cdn.jsdelivr.net/npm/country-flag-emoji-json@2.0.0/dist/images/FJ.svg",
      "unicode":"U+1F1EB U+1F1EF"
   },
   "FK":{
      "name":"Falkland Islands",
      "emoji":"🇫🇰",
      "image":"https://cdn.jsdelivr.net/npm/country-flag-emoji-json@2.0.0/dist/images/FK.svg",
      "unicode":"U+1F1EB U+1F1F0"
   },
   "FM":{
      "name":"Micronesia",
      "emoji":"🇫🇲",
      "image":"https://cdn.jsdelivr.net/npm/country-flag-emoji-json@2.0.0/dist/images/FM.svg",
      "unicode":"U+1F1EB U+1F1F2"
   },
   "FO":{
      "name":"Faroe Islands",
      "emoji":"🇫🇴",
      "image":"https://cdn.jsdelivr.net/npm/country-flag-emoji-json@2.0.0/dist/images/FO.svg",
      "unicode":"U+1F1EB U+1F1F4"
   },
   "FR":{
      "name":"France",
      "emoji":"🇫🇷",
      "image":"https://cdn.jsdelivr.net/npm/country-flag-emoji-json@2.0.0/dist/images/FR.svg",
      "unicode":"U+1F1EB U+1F1F7"
   },
   "GA":{
      "name":"Gabon",
      "emoji":"🇬🇦",
      "image":"https://cdn.jsdelivr.net/npm/country-flag-emoji-json@2.0.0/dist/images/GA.svg",
      "unicode":"U+1F1EC U+1F1E6"
   },
   "GB":{
      "name":"United Kingdom",
      "emoji":"🇬🇧",
      "image":"https://cdn.jsdelivr.net/npm/country-flag-emoji-json@2.0.0/dist/images/GB.svg",
      "unicode":"U+1F1EC U+1F1E7"
   },
   "GD":{
      "name":"Grenada",
      "emoji":"🇬🇩",
      "image":"https://cdn.jsdelivr.net/npm/country-flag-emoji-json@2.0.0/dist/images/GD.svg",
      "unicode":"U+1F1EC U+1F1E9"
   },
   "GE":{
      "name":"Georgia",
      "emoji":"🇬🇪",
      "image":"https://cdn.jsdelivr.net/npm/country-flag-emoji-json@2.0.0/dist/images/GE.svg",
      "unicode":"U+1F1EC U+1F1EA"
   },
   "GF":{
      "name":"French Guiana",
      "emoji":"🇬🇫",
      "image":"https://cdn.jsdelivr.net/npm/country-flag-emoji-json@2.0.0/dist/images/GF.svg",
      "unicode":"U+1F1EC U+1F1EB"
   },
   "GG":{
      "name":"Guernsey",
      "emoji":"🇬🇬",
      "image":"https://cdn.jsdelivr.net/npm/country-flag-emoji-json@2.0.0/dist/images/GG.svg",
      "unicode":"U+1F1EC U+1F1EC"
   },
   "GH":{
      "name":"Ghana",
      "emoji":"🇬🇭",
      "image":"https://cdn.jsdelivr.net/npm/country-flag-emoji-json@2.0.0/dist/images/GH.svg",
      "unicode":"U+1F1EC U+1F1ED"
   },
   "GI":{
      "name":"Gibraltar",
      "emoji":"🇬🇮",
      "image":"https://cdn.jsdelivr.net/npm/country-flag-emoji-json@2.0.0/dist/images/GI.svg",
      "unicode":"U+1F1EC U+1F1EE"
   },
   "GL":{
      "name":"Greenland",
      "emoji":"🇬🇱",
      "image":"https://cdn.jsdelivr.net/npm/country-flag-emoji-json@2.0.0/dist/images/GL.svg",
      "unicode":"U+1F1EC U+1F1F1"
   },
   "GM":{
      "name":"Gambia",
      "emoji":"🇬🇲",
      "image":"https://cdn.jsdelivr.net/npm/country-flag-emoji-json@2.0.0/dist/images/GM.svg",
      "unicode":"U+1F1EC U+1F1F2"
   },
   "GN":{
      "name":"Guinea",
      "emoji":"🇬🇳",
      "image":"https://cdn.jsdelivr.net/npm/country-flag-emoji-json@2.0.0/dist/images/GN.svg",
      "unicode":"U+1F1EC U+1F1F3"
   },
   "GP":{
      "name":"Guadeloupe",
      "emoji":"🇬🇵",
      "image":"https://cdn.jsdelivr.net/npm/country-flag-emoji-json@2.0.0/dist/images/GP.svg",
      "unicode":"U+1F1EC U+1F1F5"
   },
   "GQ":{
      "name":"Equatorial Guinea",
      "emoji":"🇬🇶",
      "image":"https://cdn.jsdelivr.net/npm/country-flag-emoji-json@2.0.0/dist/images/GQ.svg",
      "unicode":"U+1F1EC U+1F1F6"
   },
   "GR":{
      "name":"Greece",
      "emoji":"🇬🇷",
      "image":"https://cdn.jsdelivr.net/npm/country-flag-emoji-json@2.0.0/dist/images/GR.svg",
      "unicode":"U+1F1EC U+1F1F7"
   },
   "GS":{
      "name":"South Georgia \u0026 South Sandwich Islands",
      "emoji":"🇬🇸",
      "image":"https://cdn.jsdelivr.net/npm/country-flag-emoji-json@2.0.0/dist/images/GS.svg",
      "unicode":"U+1F1EC U+1F1F8"
   },
   "GT":{
      "name":"Guatemala",
      "emoji":"🇬🇹",
      "image":"https://cdn.jsdelivr.net/npm/country-flag-emoji-json@2.0.0/dist/images/GT.svg",
      "unicode":"U+1F1EC U+1F1F9"
   },
   "GU":{
      "name":"Guam",
      "emoji":"🇬🇺",
      "image":"https://cdn.jsdelivr.net/npm/country-flag-emoji-json@2.0.0/dist/images/GU.svg",
      "unicode":"U+1F1EC U+1F1FA"
   },
   "GW":{
      "name":"Guinea-Bissau",
      "emoji":"🇬🇼",
      "image":"https://cdn.jsdelivr.net/npm/country-flag-emoji-json@2.0.0/dist/images/GW.svg",
      "unicode":"U+1F1EC U+1F1FC"
   },
   "GY":{
      "name":"Guyana",
      "emoji":"🇬🇾",
      "image":"https://cdn.jsdelivr.net/npm/country-flag-emoji-json@2.0.0/dist/images/GY.svg",
      "unicode":"U+1F1EC U+1F1FE"
   },
   "HK":{
      "name":"Hong Kong SAR China",
      "emoji":"🇭🇰",
      "image":"https://cdn.jsdelivr.net/npm/country-flag-emoji-json@2.0.0/dist/images/HK.svg",
      "unicode":"U+1F1ED U+1F1F0"
   },
   "HM":{
      "name":"Heard \u0026 McDonald Islands",
      "emoji":"🇭🇲",
      "image":"https://cdn.jsdelivr.net/npm/country-flag-emoji-json@2.0.0/dist/images/HM.svg",
      "unicode":"U+1F1ED U+1F1F2"
   },
   "HN":{
      "name":"Honduras",
      "emoji":"🇭🇳",
      "image":"https://cdn.jsdelivr.net/npm/country-flag-emoji-json@2.0.0/dist/images/HN.svg",
      "unicode":"U+1F1ED U+1F1F3"
   },
   "HR":{
      "name":"Croatia",
      "emoji":"🇭🇷",
      "image":"https://cdn.jsdelivr.net/npm/country-flag-emoji-json@2.0.0/dist/images/HR.svg",
      "unicode":"U+1F1ED U+1F1F7"
   },
   "HT":{
      "name":"Haiti",
      "emoji":"🇭🇹",
      "image":"https://cdn.jsdelivr.net/npm/country-flag-emoji-json@2.0.0/dist/images/HT.svg",
      "unicode":"U+1F1ED U+1F1F9"
   },
   "HU":{
      "name":"Hungary",
      "emoji":"🇭🇺",
      "image":"https://cdn.jsdelivr.net/npm/country-flag-emoji-json@2.0.0/dist/images/HU.svg",
      "unicode":"U+1F1ED U+1F1FA"
   },
   "IC":{
      "name":"Canary Islands",
      "emoji":"🇮🇨",
      "image":"https://cdn.jsdelivr.net/npm/country-flag-emoji-json@2.0.0/dist/images/IC.svg",
      "unicode":"U+1F1EE U+1F1E8"
   },
   "ID":{
      "name":"Indonesia",
      "emoji":"🇮🇩",
      "image":"https://cdn.jsdelivr.net/npm/country-flag-emoji-json@2.0.0/dist/images/ID.svg",
      "unicode":"U+1F1EE U+1F1E9"
   },
   "IE":{
      "name":"Ireland",
      "emoji":"🇮🇪",
      "image":"https://cdn.jsdelivr.net/npm/country-flag-emoji-json@2.0.0/dist/images/IE.svg",
      "unicode":"U+1F1EE U+1F1EA"
   },
   "IL":{
      "name":"Israel",
      "emoji":"🇮🇱",
      "image":"https://cdn.jsdelivr.net/npm/country-flag-emoji-json@2.0.0/dist/images/IL.svg",
      "unicode":"U+1F1EE U+1F1F1"
   },
   "IM":{
      "name":"Isle of Man",
      "emoji":"🇮🇲",
      "image":"https://cdn.jsdelivr.net/npm/country-flag-emoji-json@2.0.0/dist/images/IM.svg",
      "unicode":"U+1F1EE U+1F1F2"
   },
   "IN":{
      "name":"India",
      "emoji":"🇮🇳",
      "image":"https://cdn.jsdelivr.net/npm/country-flag-emoji-json@2.0.0/dist/images/IN.svg",
      "unicode":"U+1F1EE U+1F1F3"
   },
   "IO":{
      "name":"British Indian Ocean Territory",
      "emoji":"🇮🇴",
      "image":"https://cdn.jsdelivr.net/npm/country-flag-emoji-json@2.0.0/dist/images/IO.svg",
      "unicode":"U+1F1EE U+1F1F4"
   },
   "IQ":{
      "name":"Iraq",
      "emoji":"🇮🇶",
      "image":"https://cdn.jsdelivr.net/npm/country-flag-emoji-json@2.0.0/dist/images/IQ.svg",
      "unicode":"U+1F1EE U+1F1F6"
   },
   "IR":{
      "name":"Iran",
      "emoji":"🇮🇷",
      "image":"https://cdn.jsdelivr.net/npm/country-flag-emoji-json@2.0.0/dist/images/IR.svg",
      "unicode":"U+1F1EE U+1F1F7"
   },
   "IS":{
      "name":"Iceland",
      "emoji":"🇮🇸",
      "image":"https://cdn.jsdelivr.net/npm/country-flag-emoji-json@2.0.0/dist/images/IS.svg",
      "unicode":"U+1F1EE U+1F1F8"
   },
   "IT":{
      "name":"Italy",
      "emoji":"🇮🇹",
      "image":"https://cdn.jsdelivr.net/npm/country-flag-emoji-json@2.0.0/dist/images/IT.svg",
      "unicode":"U+1F1EE U+1F1F9"
   },
   "JE":{
      "name":"Jersey",
      "emoji":"🇯🇪",
      "image":"https://cdn.jsdelivr.net/npm/country-flag-emoji-json@2.0.0/dist/images/JE.svg",
      "unicode":"U+1F1EF U+1F1EA"
   },
   "JM":{
      "name":"Jamaica",
      "emoji":"🇯🇲",
      "image":"https://cdn.jsdelivr.net/npm/country-flag-emoji-json@2.0.0/dist/images/JM.svg",
      "unicode":"U+1F1EF U+1F1F2"
   },
   "JO":{
      "name":"Jordan",
      "emoji":"🇯🇴",
      "image":"https://cdn.jsdelivr.net/npm/country-flag-emoji-json@2.0.0/dist/images/JO.svg",
      "unicode":"U+1F1EF U+1F1F4"
   },
   "JP":{
      "name":"Japan",
      "emoji":"🇯🇵",
      "image":"https://cdn.jsdelivr.net/npm/country-flag-emoji-json@2.0.0/dist/images/JP.svg",
      "unicode":"U+1F1EF U+1F1F5"
   },
   "KE":{
      "name":"Kenya",
      "emoji":"🇰🇪",
      "image":"https://cdn.jsdelivr.net/npm/country-flag-emoji-json@2.0.0/dist/images/KE.svg",
      "unicode":"U+1F1F0 U+1F1EA"
   },
   "KG":{
      "name":"Kyrgyzstan",
      "emoji":"🇰🇬",
      "image":"https://cdn.jsdelivr.net/npm/country-flag-emoji-json@2.0.0/dist/images/KG.svg",
      "unicode":"U+1F1F0 U+1F1EC"
   },
   "KH":{
      "name":"Cambodia",
      "emoji":"🇰🇭",
      "image":"https://cdn.jsdelivr.net/npm/country-flag-emoji-json@2.0.0/dist/images/KH.svg",
      "unicode":"U+1F1F0 U+1F1ED"
   },
   "KI":{
      "name":"Kiribati",
      "emoji":"🇰🇮",
      "image":"https://cdn.jsdelivr.net/npm/country-flag-emoji-json@2.0.0/dist/images/KI.svg",
      "unicode":"U+1F1F0 U+1F1EE"
   },
   "KM":{
      "name":"Comoros",
      "emoji":"🇰🇲",
      "image":"https://cdn.jsdelivr.net/npm/country-flag-emoji-json@2.0.0/dist/images/KM.svg",
      "unicode":"U+1F1F0 U+1F1F2"
   },
   "KN":{
      "name":"St. Kitts \u0026 Nevis",
      "emoji":"🇰🇳",
      "image":"https://cdn.jsdelivr.net/npm/country-flag-emoji-json@2.0.0/dist/images/KN.svg",
      "unicode":"U+1F1F0 U+1F1F3"
   },
   "KP":{
      "name":"North Korea",
      "emoji":"🇰🇵",
      "image":"https://cdn.jsdelivr.net/npm/country-flag-emoji-json@2.0.0/dist/images/KP.svg",
      "unicode":"U+1F1F0 U+1F1F5"
   },
   "KR":{
      "name":"South Korea",
      "emoji":"🇰🇷",
      "image":"https://cdn.jsdelivr.net/npm/country-flag-emoji-json@2.0.0/dist/images/KR.svg",
      "unicode":"U+1F1F0 U+1F1F7"
   },
   "KW":{
      "name":"Kuwait",
      "emoji":"🇰🇼",
      "image":"https://cdn.jsdelivr.net/npm/country-flag-emoji-json@2.0.0/dist/images/KW.svg",
      "unicode":"U+1F1F0 U+1F1FC"
   },
   "KY":{
      "name":"Cayman Islands",
      "emoji":"🇰🇾",
      "image":"https://cdn.jsdelivr.net/npm/country-flag-emoji-json@2.0.0/dist/images/KY.svg",
      "unicode":"U+1F1F0 U+1F1FE"
   },
   "KZ":{
      "name":"Kazakhstan",
      "emoji":"🇰🇿",
      "image":"https://cdn.jsdelivr.net/npm/country-flag-emoji-json@2.0.0/dist/images/KZ.svg",
      "unicode":"U+1F1F0 U+1F1FF"
   },
   "LA":{
      "name":"Laos",
      "emoji":"🇱🇦",
      "image":"https://cdn.jsdelivr.net/npm/country-flag-emoji-json@2.0.0/dist/images/LA.svg",
      "unicode":"U+1F1F1 U+1F1E6"
   },
   "LB":{
      "name":"Lebanon",
      "emoji":"🇱🇧",
      "image":"https://cdn.jsdelivr.net/npm/country-flag-emoji-json@2.0.0/dist/images/LB.svg",
      "unicode":"U+1F1F1 U+1F1E7"
   },
   "LC":{
      "name":"St. Lucia",
      "emoji":"🇱🇨",
      "image":"https://cdn.jsdelivr.net/npm/country-flag-emoji-json@2.0.0/dist/images/LC.svg",
      "unicode":"U+1F1F1 U+1F1E8"
   },
   "LI":{
      "name":"Liechtenstein",
      "emoji":"🇱🇮",
      "image":"https://cdn.jsdelivr.net/npm/country-flag-emoji-json@2.0.0/dist/images/LI.svg",
      "unicode":"U+1F1F1 U+1F1EE"
   },
   "LK":{
      "name":"Sri Lanka",
      "emoji":"🇱🇰",
      "image":"https://cdn.jsdelivr.net/npm/country-flag-emoji-json@2.0.0/dist/images/LK.svg",
      "unicode":"U+1F1F1 U+1F1F0"
   },
   "LR":{
      "name":"Liberia",
      "emoji":"🇱🇷",
      "image":"https://cdn.jsdelivr.net/npm/country-flag-emoji-json@2.0.0/dist/images/LR.svg",
      "unicode":"U+1F1F1 U+1F1F7"
   },
   "LS":{
      "name":"Lesotho",
      "emoji":"🇱🇸",
      "image":"https://cdn.jsdelivr.net/npm/country-flag-emoji-json@2.0.0/dist/images/LS.svg",
      "unicode":"U+1F1F1 U+1F1F8"
   },
   "LT":{
      "name":"Lithuania",
      "emoji":"🇱🇹",
      "image":"https://cdn.jsdelivr.net/npm/country-flag-emoji-json@2.0.0/dist/images/LT.svg",
      "unicode":"U+1F1F1 U+1F1F9"
   },
   "LU":{
      "name":"Luxembourg",
      "emoji":"🇱🇺",
      "image":"https://cdn.jsdelivr.net/npm/country-flag-emoji-json@2.0.0/dist/images/LU.svg",
      "unicode":"U+1F1F1 U+1F1FA"
   },
   "LV":{
      "name":"Latvia",
      "emoji":"🇱🇻",
      "image":"https://cdn.jsdelivr.net/npm/country-flag-emoji-json@2.0.0/dist/images/LV.svg",
      "unicode":"U+1F1F1 U+1F1FB"
   },
   "LY":{
      "name":"Libya",
      "emoji":"🇱🇾",
      "image":"https://cdn.jsdelivr.net/npm/country-flag-emoji-json@2.0.0/dist/images/LY.svg",
      "unicode":"U+1F1F1 U+1F1FE"
   },
   "MA":{
      "name":"Morocco",
      "emoji":"🇲🇦",
      "image":"https://cdn.jsdelivr.net/npm/country-flag-emoji-json@2.0.0/dist/images/MA.svg",
      "unicode":"U+1F1F2 U+1F1E6"
   },
   "MC":{
      "name":"Monaco",
      "emoji":"🇲🇨",
      "image":"https://cdn.jsdelivr.net/npm/country-flag-emoji-json@2.0.0/dist/images/MC.svg",
      "unicode":"U+1F1F2 U+1F1E8"
   },
   "MD":{
      "name":"Moldova",
      "emoji":"🇲🇩",
      "image":"https://cdn.jsdelivr.net/npm/country-flag-emoji-json@2.0.0/dist/images/MD.svg",
      "unicode":"U+1F1F2 U+1F1E9"
   },
   "ME":{
      "name":"Montenegro",
      "emoji":"🇲🇪",
      "image":"https://cdn.jsdelivr.net/npm/country-flag-emoji-json@2.0.0/dist/images/ME.svg",
      "unicode":"U+1F1F2 U+1F1EA"
   },
   "MF":{
      "name":"St. Martin",
      "emoji":"🇲🇫",
      "image":"https://cdn.jsdelivr.net/npm/country-flag-emoji-json@2.0.0/dist/images/MF.svg",
      "unicode":"U+1F1F2 U+1F1EB"
   },
   "MG":{
      "name":"Madagascar",
      "emoji":"🇲🇬",
      "image":"https://cdn.jsdelivr.net/npm/country-flag-emoji-json@2.0.0/dist/images/MG.svg",
      "unicode":"U+1F1F2 U+1F1EC"
   },
   "MH":{
      "name":"Marshall Islands",
      "emoji":"🇲🇭",
      "image":"https://cdn.jsdelivr.net/npm/country-flag-emoji-json@2.0.0/dist/images/MH.svg",
      "unicode":"U+1F1F2 U+1F1ED"
   },
   "MK":{
      "name":"North Macedonia",
      "emoji":"🇲🇰",
      "image":"https://cdn.jsdelivr.net/npm/country-flag-emoji-json@2.0.0/dist/images/MK.svg",
      "unicode":"U+1F1F2 U+1F1F0"
   },
   "ML":{
      "name":"Mali",
      "emoji":"🇲🇱",
      "image":"https://cdn.jsdelivr.net/npm/country-flag-emoji-json@2.0.0/dist/images/ML.svg",
      "unicode":"U+1F1F2 U+1F1F1"
   },
   "MM":{
      "name":"Myanmar (Burma)",
      "emoji":"🇲🇲",
      "image":"https://cdn.jsdelivr.net/npm/country-flag-emoji-json@2.0.0/dist/images/MM.svg",
      "unicode":"U+1F1F2 U+1F1F2"
   },
   "MN":{
      "name":"Mongolia",
      "emoji":"🇲🇳",
      "image":"https://cdn.jsdelivr.net/npm/country-flag-emoji-json@2.0.0/dist/images/MN.svg",
      "unicode":"U+1F1F2 U+1F1F3"
   },
   "MO":{
      "name":"Macao SAR China",
      "emoji":"🇲🇴",
      "image":"https://cdn.jsdelivr.net/npm/country-flag-emoji-json@2.0.0/dist/images/MO.svg",
      "unicode":"U+1F1F2 U+1F1F4"
   },
   "MP":{
      "name":"Northern Mariana Islands",
      "emoji":"🇲🇵",
      "image":"https://cdn.jsdelivr.net/npm/country-flag-emoji-json@2.0.0/dist/images/MP.svg",
      "unicode":"U+1F1F2 U+1F1F5"
   },
   "MQ":{
      "name":"Martinique",
      "emoji":"🇲🇶",
      "image":"https://cdn.jsdelivr.net/npm/country-flag-emoji-json@2.0.0/dist/images/MQ.svg",
      "unicode":"U+1F1F2 U+1F1F6"
   },
   "MR":{
      "name":"Mauritania",
      "emoji":"🇲🇷",
      "image":"https://cdn.jsdelivr.net/npm/country-flag-emoji-json@2.0.0/dist/images/MR.svg",
      "unicode":"U+1F1F2 U+1F1F7"
   },
   "MS":{
      "name":"Montserrat",
      "emoji":"🇲🇸",
      "image":"https://cdn.jsdelivr.net/npm/country-flag-emoji-json@2.0.0/dist/images/MS.svg",
      "unicode":"U+1F1F2 U+1F1F8"
   },
   "MT":{
      "name":"Malta",
      "emoji":"🇲🇹",
      "image":"https://cdn.jsdelivr.net/npm/country-flag-emoji-json@2.0.0/dist/images/MT.svg",
      "unicode":"U+1F1F2 U+1F1F9"
   },
   "MU":{
      "name":"Mauritius",
      "emoji":"🇲🇺",
      "image":"https://cdn.jsdelivr.net/npm/country-flag-emoji-json@2.0.0/dist/images/MU.svg",
      "unicode":"U+1F1F2 U+1F1FA"
   },
   "MV":{
      "name":"Maldives",
      "emoji":"🇲🇻",
      "image":"https://cdn.jsdelivr.net/npm/country-flag-emoji-json@2.0.0/dist/images/MV.svg",
      "unicode":"U+1F1F2 U+1F1FB"
   },
   "MW":{
      "name":"Malawi",
      "emoji":"🇲🇼",
      "image":"https://cdn.jsdelivr.net/npm/country-flag-emoji-json@2.0.0/dist/images/MW.svg",
      "unicode":"U+1F1F2 U+1F1FC"
   },
   "MX":{
      "name":"Mexico",
      "emoji":"🇲🇽",
      "image":"https://cdn.jsdelivr.net/npm/country-flag-emoji-json@2.0.0/dist/images/MX.svg",
      "unicode":"U+1F1F2 U+1F1FD"
   },
   "MY":{
      "name":"Malaysia",
      "emoji":"🇲🇾",
      "image":"https://cdn.jsdelivr.net/npm/country-flag-emoji-json@2.0.0/dist/images/MY.svg",
      "unicode":"U+1F1F2 U+1F1FE"
   },
   "MZ":{
      "name":"Mozambique",
      "emoji":"🇲🇿",
      "image":"https://cdn.jsdelivr.net/npm/country-flag-emoji-json@2.0.0/dist/images/MZ.svg",
      "unicode":"U+1F1F2 U+1F1FF"
   },
   "NA":{
      "name":"Namibia",
      "emoji":"🇳🇦",
      "image":"https://cdn.jsdelivr.net/npm/country-flag-emoji-json@2.0.0/dist/images/NA.svg",
      "unicode":"U+1F1F3 U+1F1E6"
   },
   "NC":{
      "name":"New Caledonia",
      "emoji":"🇳🇨",
      "image":"https://cdn.jsdelivr.net/npm/country-flag-emoji-json@2.0.0/dist/images/NC.svg",
      "unicode":"U+1F1F3 U+1F1E8"
   },
   "NE":{
      "name":"Niger",
      "emoji":"🇳🇪",
      "image":"https://cdn.jsdelivr.net/npm/country-flag-emoji-json@2.0.0/dist/images/NE.svg",
      "unicode":"U+1F1F3 U+1F1EA"
   },
   "NF":{
      "name":"Norfolk Island",
      "emoji":"🇳🇫",
      "image":"https://cdn.jsdelivr.net/npm/country-flag-emoji-json@2.0.0/dist/images/NF.svg",
      "unicode":"U+1F1F3 U+1F1EB"
   },
   "NG":{
      "name":"Nigeria",
      "emoji":"🇳🇬",
      "image":"https://cdn.jsdelivr.net/npm/country-flag-emoji-json@2.0.0/dist/images/NG.svg",
      "unicode":"U+1F1F3 U+1F1EC"
   },
   "NI":{
      "name":"Nicaragua",
      "emoji":"🇳🇮",
      "image":"https://cdn.jsdelivr.net/npm/country-flag-emoji-json@2.0.0/dist/images/NI.svg",
      "unicode":"U+1F1F3 U+1F1EE"
   },
   "NL":{
      "name":"Netherlands",
      "emoji":"🇳🇱",
      "image":"https://cdn.jsdelivr.net/npm/country-flag-emoji-json@2.0.0/dist/images/NL.svg",
      "unicode":"U+1F1F3 U+1F1F1"
   },
   "NO":{
      "name":"Norway",
      "emoji":"🇳🇴",
      "image":"https://cdn.jsdelivr.net/npm/country-flag-emoji-json@2.0.0/dist/images/NO.svg",
      "unicode":"U+1F1F3 U+1F1F4"
   },
   "NP":{
      "name":"Nepal",
      "emoji":"🇳🇵",
      "image":"https://cdn.jsdelivr.net/npm/country-flag-emoji-json@2.0.0/dist/images/NP.svg",
      "unicode":"U+1F1F3 U+1F1F5"
   },
   "NR":{
      "name":"Nauru",
      "emoji":"🇳🇷",
      "image":"https://cdn.jsdelivr.net/npm/country-flag-emoji-json@2.0.0/dist/images/NR.svg",
      "unicode":"U+1F1F3 U+1F1F7"
   },
   "NU":{
      "name":"Niue",
      "emoji":"🇳🇺",
      "image":"https://cdn.jsdelivr.net/npm/country-flag-emoji-json@2.0.0/dist/images/NU.svg",
      "unicode":"U+1F1F3 U+1F1FA"
   },
   "NZ":{
      "name":"New Zealand",
      "emoji":"🇳🇿",
      "image":"https://cdn.jsdelivr.net/npm/country-flag-emoji-json@2.0.0/dist/images/NZ.svg",
      "unicode":"U+1F1F3 U+1F1FF"
   },
   "OM":{
      "name":"Oman",
      "emoji":"🇴🇲",
      "image":"https://cdn.jsdelivr.net/npm/country-flag-emoji-json@2.0.0/dist/images/OM.svg",
      "unicode":"U+1F1F4 U+1F1F2"
   },
   "PA":{
      "name":"Panama",
      "emoji":"🇵🇦",
      "image":"https://cdn.jsdelivr.net/npm/country-flag-emoji-json@2.0.0/dist/images/PA.svg",
      "unicode":"U+1F1F5 U+1F1E6"
   },
   "PE":{
      "name":"Peru",
      "emoji":"🇵🇪",
      "image":"https://cdn.jsdelivr.net/npm/country-flag-emoji-json@2.0.0/dist/images/PE.svg",
      "unicode":"U+1F1F5 U+1F1EA"
   },
   "PF":{
      "name":"French Polynesia",
      "emoji":"🇵🇫",
      "image":"https://cdn.jsdelivr.net/npm/country-flag-emoji-json@2.0.0/dist/images/PF.svg",
      "unicode":"U+1F1F5 U+1F1EB"
   },
   "PG":{
      "name":"Papua New Guinea",
      "emoji":"🇵🇬",
      "image":"https://cdn.jsdelivr.net/npm/country-flag-emoji-json@2.0.0/dist/images/PG.svg",
      "unicode":"U+1F1F5 U+1F1EC"
   },
   "PH":{
      "name":"Philippines",
      "emoji":"🇵🇭",
      "image":"https://cdn.jsdelivr.net/npm/country-flag-emoji-json@2.0.0/dist/images/PH.svg",
      "unicode":"U+1F1F5 U+1F1ED"
   },
   "PK":{
      "name":"Pakistan",
      "emoji":"🇵🇰",
      "image":"https://cdn.jsdelivr.net/npm/country-flag-emoji-json@2.0.0/dist/images/PK.svg",
      "unicode":"U+1F1F5 U+1F1F0"
   },
   "PL":{
      "name":"Poland",
      "emoji":"🇵🇱",
      "image":"https://cdn.jsdelivr.net/npm/country-flag-emoji-json@2.0.0/dist/images/PL.svg",
      "unicode":"U+1F1F5 U+1F1F1"
   },
   "PM":{
      "name":"St. Pierre \u0026 Miquelon",
      "emoji":"🇵🇲",
      "image":"https://cdn.jsdelivr.net/npm/country-flag-emoji-json@2.0.0/dist/images/PM.svg",
      "unicode":"U+1F1F5 U+1F1F2"
   },
   "PN":{
      "name":"Pitcairn Islands",
      "emoji":"🇵🇳",
      "image":"https://cdn.jsdelivr.net/npm/country-flag-emoji-json@2.0.0/dist/images/PN.svg",
      "unicode":"U+1F1F5 U+1F1F3"
   },
   "PR":{
      "name":"Puerto Rico",
      "emoji":"🇵🇷",
      "image":"https://cdn.jsdelivr.net/npm/country-flag-emoji-json@2.0.0/dist/images/PR.svg",
      "unicode":"U+1F1F5 U+1F1F7"
   },
   "PS":{
      "name":"Palestinian Territories",
      "emoji":"🇵🇸",
      "image":"https://cdn.jsdelivr.net/npm/country-flag-emoji-json@2.0.0/dist/images/PS.svg",
      "unicode":"U+1F1F5 U+1F1F8"
   },
   "PT":{
      "name":"Portugal",
      "emoji":"🇵🇹",
      "image":"https://cdn.jsdelivr.net/npm/country-flag-emoji-json@2.0.0/dist/images/PT.svg",
      "unicode":"U+1F1F5 U+1F1F9"
   },
   "PW":{
      "name":"Palau",
      "emoji":"🇵🇼",
      "image":"https://cdn.jsdelivr.net/npm/country-flag-emoji-json@2.0.0/dist/images/PW.svg",
      "unicode":"U+1F1F5 U+1F1FC"
   },
   "PY":{
      "name":"Paraguay",
      "emoji":"🇵🇾",
      "image":"https://cdn.jsdelivr.net/npm/country-flag-emoji-json@2.0.0/dist/images/PY.svg",
      "unicode":"U+1F1F5 U+1F1FE"
   },
   "QA":{
      "name":"Qatar",
      "emoji":"🇶🇦",
      "image":"https://cdn.jsdelivr.net/npm/country-flag-emoji-json@2.0.0/dist/images/QA.svg",
      "unicode":"U+1F1F6 U+1F1E6"
   },
   "RE":{
      "name":"Réunion",
      "emoji":"🇷🇪",
      "image":"https://cdn.jsdelivr.net/npm/country-flag-emoji-json@2.0.0/dist/images/RE.svg",
      "unicode":"U+1F1F7 U+1F1EA"
   },
   "RO":{
      "name":"Romania",
      "emoji":"🇷🇴",
      "image":"https://cdn.jsdelivr.net/npm/country-flag-emoji-json@2.0.0/dist/images/RO.svg",
      "unicode":"U+1F1F7 U+1F1F4"
   },
   "RS":{
      "name":"Serbia",
      "emoji":"🇷🇸",
      "image":"https://cdn.jsdelivr.net/npm/country-flag-emoji-json@2.0.0/dist/images/RS.svg",
      "unicode":"U+1F1F7 U+1F1F8"
   },
   "RU":{
      "name":"Russia",
      "emoji":"🇷🇺",
      "image":"https://cdn.jsdelivr.net/npm/country-flag-emoji-json@2.0.0/dist/images/RU.svg",
      "unicode":"U+1F1F7 U+1F1FA"
   },
   "RW":{
      "name":"Rwanda",
      "emoji":"🇷🇼",
      "image":"https://cdn.jsdelivr.net/npm/country-flag-emoji-json@2.0.0/dist/images/RW.svg",
      "unicode":"U+1F1F7 U+1F1FC"
   },
   "SA":{
      "name":"Saudi Arabia",
      "emoji":"🇸🇦",
      "image":"https://cdn.jsdelivr.net/npm/country-flag-emoji-json@2.0.0/dist/images/SA.svg",
      "unicode":"U+1F1F8 U+1F1E6"
   },
   "SB":{
      "name":"Solomon Islands",
      "emoji":"🇸🇧",
      "image":"https://cdn.jsdelivr.net/npm/country-flag-emoji-json@2.0.0/dist/images/SB.svg",
      "unicode":"U+1F1F8 U+1F1E7"
   },
   "SC":{
      "name":"Seychelles",
      "emoji":"🇸🇨",
      "image":"https://cdn.jsdelivr.net/npm/country-flag-emoji-json@2.0.0/dist/images/SC.svg",
      "unicode":"U+1F1F8 U+1F1E8"
   },
   "SD":{
      "name":"Sudan",
      "emoji":"🇸🇩",
      "image":"https://cdn.jsdelivr.net/npm/country-flag-emoji-json@2.0.0/dist/images/SD.svg",
      "unicode":"U+1F1F8 U+1F1E9"
   },
   "SE":{
      "name":"Sweden",
      "emoji":"🇸🇪",
      "image":"https://cdn.jsdelivr.net/npm/country-flag-emoji-json@2.0.0/dist/images/SE.svg",
      "unicode":"U+1F1F8 U+1F1EA"
   },
   "SG":{
      "name":"Singapore",
      "emoji":"🇸🇬",
      "image":"https://cdn.jsdelivr.net/npm/country-flag-emoji-json@2.0.0/dist/images/SG.svg",
      "unicode":"U+1F1F8 U+1F1EC"
   },
   "SH":{
      "name":"St. Helena",
      "emoji":"🇸🇭",
      "image":"https://cdn.jsdelivr.net/npm/country-flag-emoji-json@2.0.0/dist/images/SH.svg",
      "unicode":"U+1F1F8 U+1F1ED"
   },
   "SI":{
      "name":"Slovenia",
      "emoji":"🇸🇮",
      "image":"https://cdn.jsdelivr.net/npm/country-flag-emoji-json@2.0.0/dist/images/SI.svg",
      "unicode":"U+1F1F8 U+1F1EE"
   },
   "SJ":{
      "name":"Svalbard \u0026 Jan Mayen",
      "emoji":"🇸🇯",
      "image":"https://cdn.jsdelivr.net/npm/country-flag-emoji-json@2.0.0/dist/images/SJ.svg",
      "unicode":"U+1F1F8 U+1F1EF"
   },
   "SK":{
      "name":"Slovakia",
      "emoji":"🇸🇰",
      "image":"https://cdn.jsdelivr.net/npm/country-flag-emoji-json@2.0.0/dist/images/SK.svg",
      "unicode":"U+1F1F8 U+1F1F0"
   },
   "SL":{
      "name":"Sierra Leone",
      "emoji":"🇸🇱",
      "image":"https://cdn.jsdelivr.net/npm/country-flag-emoji-json@2.0.0/dist/images/SL.svg",
      "unicode":"U+1F1F8 U+1F1F1"
   },
   "SM":{
      "name":"San Marino",
      "emoji":"🇸🇲",
      "image":"https://cdn.jsdelivr.net/npm/country-flag-emoji-json@2.0.0/dist/images/SM.svg",
      "unicode":"U+1F1F8 U+1F1F2"
   },
   "SN":{
      "name":"Senegal",
      "emoji":"🇸🇳",
      "image":"https://cdn.jsdelivr.net/npm/country-flag-emoji-json@2.0.0/dist/images/SN.svg",
      "unicode":"U+1F1F8 U+1F1F3"
   },
   "SO":{
      "name":"Somalia",
      "emoji":"🇸🇴",
      "image":"https://cdn.jsdelivr.net/npm/country-flag-emoji-json@2.0.0/dist/images/SO.svg",
      "unicode":"U+1F1F8 U+1F1F4"
   },
   "SR":{
      "name":"Suriname",
      "emoji":"🇸🇷",
      "image":"https://cdn.jsdelivr.net/npm/country-flag-emoji-json@2.0.0/dist/images/SR.svg",
      "unicode":"U+1F1F8 U+1F1F7"
   },
   "SS":{
      "name":"South Sudan",
      "emoji":"🇸🇸",
      "image":"https://cdn.jsdelivr.net/npm/country-flag-emoji-json@2.0.0/dist/images/SS.svg",
      "unicode":"U+1F1F8 U+1F1F8"
   },
   "ST":{
      "name":"São Tomé \u0026 Príncipe",
      "emoji":"🇸🇹",
      "image":"https://cdn.jsdelivr.net/npm/country-flag-emoji-json@2.0.0/dist/images/ST.svg",
      "unicode":"U+1F1F8 U+1F1F9"
   },
   "SV":{
      "name":"El Salvador",
      "emoji":"🇸🇻",
      "image":"https://cdn.jsdelivr.net/npm/country-flag-emoji-json@2.0.0/dist/images/SV.svg",
      "unicode":"U+1F1F8 U+1F1FB"
   },
   "SX":{
      "name":"Sint Maarten",
      "emoji":"🇸🇽",
      "image":"https://cdn.jsdelivr.net/npm/country-flag-emoji-json@2.0.0/dist/images/SX.svg",
      "unicode":"U+1F1F8 U+1F1FD"
   },
   "SY":{
      "name":"Syria",
      "emoji":"🇸🇾",
      "image":"https://cdn.jsdelivr.net/npm/country-flag-emoji-json@2.0.0/dist/images/SY.svg",
      "unicode":"U+1F1F8 U+1F1FE"
   },
   "SZ":{
      "name":"Eswatini",
      "emoji":"🇸🇿",
      "image":"https://cdn.jsdelivr.net/npm/country-flag-emoji-json@2.0.0/dist/images/SZ.svg",
      "unicode":"U+1F1F8 U+1F1FF"
   },
   "TA":{
      "name":"Tristan da Cunha",
      "emoji":"🇹🇦",
      "image":"https://cdn.jsdelivr.net/npm/country-flag-emoji-json@2.0.0/dist/images/TA.svg",
      "unicode":"U+1F1F9 U+1F1E6"
   },
   "TC":{
      "name":"Turks \u0026 Caicos Islands",
      "emoji":"🇹🇨",
      "image":"https://cdn.jsdelivr.net/npm/country-flag-emoji-json@2.0.0/dist/images/TC.svg",
      "unicode":"U+1F1F9 U+1F1E8"
   },
   "TD":{
      "name":"Chad",
      "emoji":"🇹🇩",
      "image":"https://cdn.jsdelivr.net/npm/country-flag-emoji-json@2.0.0/dist/images/TD.svg",
      "unicode":"U+1F1F9 U+1F1E9"
   },
   "TF":{
      "name":"French Southern Territories",
      "emoji":"🇹🇫",
      "image":"https://cdn.jsdelivr.net/npm/country-flag-emoji-json@2.0.0/dist/images/TF.svg",
      "unicode":"U+1F1F9 U+1F1EB"
   },
   "TG":{
      "name":"Togo",
      "emoji":"🇹🇬",
      "image":"https://cdn.jsdelivr.net/npm/country-flag-emoji-json@2.0.0/dist/images/TG.svg",
      "unicode":"U+1F1F9 U+1F1EC"
   },
   "TH":{
      "name":"Thailand",
      "emoji":"🇹🇭",
      "image":"https://cdn.jsdelivr.net/npm/country-flag-emoji-json@2.0.0/dist/images/TH.svg",
      "unicode":"U+1F1F9 U+1F1ED"
   },
   "TJ":{
      "name":"Tajikistan",
      "emoji":"🇹🇯",
      "image":"https://cdn.jsdelivr.net/npm/country-flag-emoji-json@2.0.0/dist/images/TJ.svg",
      "unicode":"U+1F1F9 U+1F1EF"
   },
   "TK":{
      "name":"Tokelau",
      "emoji":"🇹🇰",
      "image":"https://cdn.jsdelivr.net/npm/country-flag-emoji-json@2.0.0/dist/images/TK.svg",
      "unicode":"U+1F1F9 U+1F1F0"
   },
   "TL":{
      "name":"Timor-Leste",
      "emoji":"🇹🇱",
      "image":"https://cdn.jsdelivr.net/npm/country-flag-emoji-json@2.0.0/dist/images/TL.svg",
      "unicode":"U+1F1F9 U+1F1F1"
   },
   "TM":{
      "name":"Turkmenistan",
      "emoji":"🇹🇲",
      "image":"https://cdn.jsdelivr.net/npm/country-flag-emoji-json@2.0.0/dist/images/TM.svg",
      "unicode":"U+1F1F9 U+1F1F2"
   },
   "TN":{
      "name":"Tunisia",
      "emoji":"🇹🇳",
      "image":"https://cdn.jsdelivr.net/npm/country-flag-emoji-json@2.0.0/dist/images/TN.svg",
      "unicode":"U+1F1F9 U+1F1F3"
   },
   "TO":{
      "name":"Tonga",
      "emoji":"🇹🇴",
      "image":"https://cdn.jsdelivr.net/npm/country-flag-emoji-json@2.0.0/dist/images/TO.svg",
      "unicode":"U+1F1F9 U+1F1F4"
   },
   "TR":{
      "name":"Turkey",
      "emoji":"🇹🇷",
      "image":"https://cdn.jsdelivr.net/npm/country-flag-emoji-json@2.0.0/dist/images/TR.svg",
      "unicode":"U+1F1F9 U+1F1F7"
   },
   "TT":{
      "name":"Trinidad \u0026 Tobago",
      "emoji":"🇹🇹",
      "image":"https://cdn.jsdelivr.net/npm/country-flag-emoji-json@2.0.0/dist/images/TT.svg",
      "unicode":"U+1F1F9 U+1F1F9"
   },
   "TV":{
      "name":"Tuvalu",
      "emoji":"🇹🇻",
      "image":"https://cdn.jsdelivr.net/npm/country-flag-emoji-json@2.0.0/dist/images/TV.svg",
      "unicode":"U+1F1F9 U+1F1FB"
   },
   "TW":{
      "name":"Taiwan",
      "emoji":"🇹🇼",
      "image":"https://cdn.jsdelivr.net/npm/country-flag-emoji-json@2.0.0/dist/images/TW.svg",
      "unicode":"U+1F1F9 U+1F1FC"
   },
   "TZ":{
      "name":"Tanzania",
      "emoji":"🇹🇿",
      "image":"https://cdn.jsdelivr.net/npm/country-flag-emoji-json@2.0.0/dist/images/TZ.svg",
      "unicode":"U+1F1F9 U+1F1FF"
   },
   "UA":{
      "name":"Ukraine",
      "emoji":"🇺🇦",
      "image":"https://cdn.jsdelivr.net/npm/country-flag-emoji-json@2.0.0/dist/images/UA.svg",
      "unicode":"U+1F1FA U+1F1E6"
   },
   "UG":{
      "name":"Uganda",
      "emoji":"🇺🇬",
      "image":"https://cdn.jsdelivr.net/npm/country-flag-emoji-json@2.0.0/dist/images/UG.svg",
      "unicode":"U+1F1FA U+1F1EC"
   },
   "UM":{
      "name":"U.S. Outlying Islands",
      "emoji":"🇺🇲",
      "image":"https://cdn.jsdelivr.net/npm/country-flag-emoji-json@2.0.0/dist/images/UM.svg",
      "unicode":"U+1F1FA U+1F1F2"
   },
   "UN":{
      "name":"United Nations",
      "emoji":"🇺🇳",
      "image":"https://cdn.jsdelivr.net/npm/country-flag-emoji-json@2.0.0/dist/images/UN.svg",
      "unicode":"U+1F1FA U+1F1F3"
   },
   "US":{
      "name":"United States",
      "emoji":"🇺🇸",
      "image":"https://cdn.jsdelivr.net/npm/country-flag-emoji-json@2.0.0/dist/images/US.svg",
      "unicode":"U+1F1FA U+1F1F8"
   },
   "UY":{
      "name":"Uruguay",
      "emoji":"🇺🇾",
      "image":"https://cdn.jsdelivr.net/npm/country-flag-emoji-json@2.0.0/dist/images/UY.svg",
      "unicode":"U+1F1FA U+1F1FE"
   },
   "UZ":{
      "name":"Uzbekistan",
      "emoji":"🇺🇿",
      "image":"https://cdn.jsdelivr.net/npm/country-flag-emoji-json@2.0.0/dist/images/UZ.svg",
      "unicode":"U+1F1FA U+1F1FF"
   },
   "VA":{
      "name":"Vatican City",
      "emoji":"🇻🇦",
      "image":"https://cdn.jsdelivr.net/npm/country-flag-emoji-json@2.0.0/dist/images/VA.svg",
      "unicode":"U+1F1FB U+1F1E6"
   },
   "VC":{
      "name":"St. Vincent \u0026 Grenadines",
      "emoji":"🇻🇨",
      "image":"https://cdn.jsdelivr.net/npm/country-flag-emoji-json@2.0.0/dist/images/VC.svg",
      "unicode":"U+1F1FB U+1F1E8"
   },
   "VE":{
      "name":"Venezuela",
      "emoji":"🇻🇪",
      "image":"https://cdn.jsdelivr.net/npm/country-flag-emoji-json@2.0.0/dist/images/VE.svg",
      "unicode":"U+1F1FB U+1F1EA"
   },
   "VG":{
      "name":"British Virgin Islands",
      "emoji":"🇻🇬",
      "image":"https://cdn.jsdelivr.net/npm/country-flag-emoji-json@2.0.0/dist/images/VG.svg",
      "unicode":"U+1F1FB U+1F1EC"
   },
   "VI":{
      "name":"U.S. Virgin Islands",
      "emoji":"🇻🇮",
      "image":"https://cdn.jsdelivr.net/npm/country-flag-emoji-json@2.0.0/dist/images/VI.svg",
      "unicode":"U+1F1FB U+1F1EE"
   },
   "VN":{
      "name":"Vietnam",
      "emoji":"🇻🇳",
      "image":"https://cdn.jsdelivr.net/npm/country-flag-emoji-json@2.0.0/dist/images/VN.svg",
      "unicode":"U+1F1FB U+1F1F3"
   },
   "VU":{
      "name":"Vanuatu",
      "emoji":"🇻🇺",
      "image":"https://cdn.jsdelivr.net/npm/country-flag-emoji-json@2.0.0/dist/images/VU.svg",
      "unicode":"U+1F1FB U+1F1FA"
   },
   "WF":{
      "name":"Wallis \u0026 Futuna",
      "emoji":"🇼🇫",
      "image":"https://cdn.jsdelivr.net/npm/country-flag-emoji-json@2.0.0/dist/images/WF.svg",
      "unicode":"U+1F1FC U+1F1EB"
   },
   "WS":{
      "name":"Samoa",
      "emoji":"🇼🇸",
      "image":"https://cdn.jsdelivr.net/npm/country-flag-emoji-json@2.0.0/dist/images/WS.svg",
      "unicode":"U+1F1FC U+1F1F8"
   },
   "XK":{
      "name":"Kosovo",
      "emoji":"🇽🇰",
      "image":"https://cdn.jsdelivr.net/npm/country-flag-emoji-json@2.0.0/dist/images/XK.svg",
      "unicode":"U+1F1FD U+1F1F0"
   },
   "YE":{
      "name":"Yemen",
      "emoji":"🇾🇪",
      "image":"https://cdn.jsdelivr.net/npm/country-flag-emoji-json@2.0.0/dist/images/YE.svg",
      "unicode":"U+1F1FE U+1F1EA"
   },
   "YT":{
      "name":"Mayotte",
      "emoji":"🇾🇹",
      "image":"https://cdn.jsdelivr.net/npm/country-flag-emoji-json@2.0.0/dist/images/YT.svg",
      "unicode":"U+1F1FE U+1F1F9"
   },
   "ZA":{
      "name":"South Africa",
      "emoji":"🇿🇦",
      "image":"https://cdn.jsdelivr.net/npm/country-flag-emoji-json@2.0.0/dist/images/ZA.svg",
      "unicode":"U+1F1FF U+1F1E6"
   },
   "ZM":{
      "name":"Zambia",
      "emoji":"🇿🇲",
      "image":"https://cdn.jsdelivr.net/npm/country-flag-emoji-json@2.0.0/dist/images/ZM.svg",
      "unicode":"U+1F1FF U+1F1F2"
   },
   "ZW":{
      "name":"Zimbabwe",
      "emoji":"🇿🇼",
      "image":"https://cdn.jsdelivr.net/npm/country-flag-emoji-json@2.0.0/dist/images/ZW.svg",
      "unicode":"U+1F1FF U+1F1FC"
   },
   "WALES":{
      "name":"Wales",
      "emoji":"🏴󠁧󠁢󠁷󠁬󠁳󠁿",
      "image":"https://cdn.jsdelivr.net/npm/country-flag-emoji-json@2.0.0/dist/images/WALES.svg",
      "unicode":"U+1F3F4 U+E0067 U+E0062 U+E0077 U+E006C U+E0073 U+E007F"
   },
   "ENGLAND":{
      "name":"England",
      "emoji":"🏴󠁧󠁢󠁥󠁮󠁧󠁿",
      "image":"https://cdn.jsdelivr.net/npm/country-flag-emoji-json@2.0.0/dist/images/ENGLAND.svg",
      "unicode":"U+1F3F4 U+E0067 U+E0062 U+E0065 U+E006E U+E0067 U+E007F"
   },
   "SCOTLAND":{
      "name":"Scotland",
      "emoji":"🏴󠁧󠁢󠁳󠁣󠁴󠁿",
      "image":"https://cdn.jsdelivr.net/npm/country-flag-emoji-json@2.0.0/dist/images/SCOTLAND.svg",
      "unicode":"U+1F3F4 U+E0067 U+E0062 U+E0073 U+E0063 U+E0074 U+E007F"
   }
}
